Single Cycle CPU/cpu_tb.vcd
$date
	Mon Oct 17 22:50:23 2022
$end
$version
	Icarus Verilog
$end
$timescale
	1ps
$end
$scope module cpu_tb $end
$var wire 32 ! idata [31:0] $end
$var wire 32 " iaddr [31:0] $end
$var wire 4 # dwe [3:0] $end
$var wire 32 $ dwdata [31:0] $end
$var wire 32 % drdata [31:0] $end
$var wire 32 & daddr [31:0] $end
$var reg 1 ' clk $end
$var reg 32 ( dtmp [31:0] $end
$var reg 32 ) exp_reg [31:0] $end
$var reg 1 * reset $end
$var integer 32 + exp_file [31:0] $end
$var integer 32 , fail [31:0] $end
$var integer 32 - i [31:0] $end
$var integer 32 . log_file [31:0] $end
$var integer 32 / s [31:0] $end
$scope module u1 $end
$var wire 1 ' clk $end
$var wire 1 * reset $end
$var wire 32 0 rv2 [31:0] $end
$var wire 32 1 rv1 [31:0] $end
$var wire 5 2 rs2 [4:0] $end
$var wire 5 3 rs1 [4:0] $end
$var wire 5 4 rd [4:0] $end
$var wire 7 5 opcode [6:0] $end
$var wire 12 6 offset_store [11:0] $end
$var wire 12 7 offset_load [11:0] $end
$var wire 12 8 imm [11:0] $end
$var wire 32 9 idata [31:0] $end
$var wire 7 : funct7 [6:0] $end
$var wire 3 ; funct3 [2:0] $end
$var wire 32 < drdata [31:0] $end
$var wire 32 = alu_out [31:0] $end
$var reg 32 > daddr [31:0] $end
$var reg 32 ? dwdata [31:0] $end
$var reg 4 @ dwe [3:0] $end
$var reg 32 A iaddr [31:0] $end
$var reg 32 B iaddr_new [31:0] $end
$var reg 1 C jump $end
$var reg 32 D reg_write [31:0] $end
$var reg 1 E rf_we $end
$scope module A $end
$var wire 3 F funct3 [2:0] $end
$var wire 7 G funct7 [6:0] $end
$var wire 12 H imm [11:0] $end
$var wire 7 I opcode [6:0] $end
$var wire 5 J shamt [4:0] $end
$var wire 32 K slti_check [31:0] $end
$var wire 32 L slt_check [31:0] $end
$var wire 32 M rv2 [31:0] $end
$var wire 32 N rv1 [31:0] $end
$var wire 32 O imm_ext [31:0] $end
$var reg 32 P valout [31:0] $end
$upscope $end
$scope module RF $end
$var wire 1 ' clk $end
$var wire 5 Q reg1_address [4:0] $end
$var wire 32 R reg1_data [31:0] $end
$var wire 5 S reg2_address [4:0] $end
$var wire 32 T reg2_data [31:0] $end
$var wire 1 * reset $end
$var wire 5 U write_address [4:0] $end
$var wire 32 V write_data [31:0] $end
$var wire 1 E write_enable $end
$var integer 32 W i [31:0] $end
$upscope $end
$upscope $end
$scope module u2 $end
$var wire 32 X iaddr [31:0] $end
$var wire 32 Y idata [31:0] $end
$upscope $end
$scope module u3 $end
$var wire 1 ' clk $end
$var wire 32 Z daddr [31:0] $end
$var wire 32 [ dwdata [31:0] $end
$var wire 4 \ dwe [3:0] $end
$var wire 32 ] drdata [31:0] $end
$var wire 30 ^ a [29:0] $end
$upscope $end
$upscope $end
$enddefinitions $end
#0
$dumpvars
b0 ^
b0 ]
b0 \
b0 [
b0 Z
b100000000111110010011 Y
b0 X
b100000 W
b1 V
b11111 U
b0 T
b1 S
b0 R
b0 Q
b1 P
b1 O
b0 N
b0 M
b0 L
b11111111111111111111111111111111 K
b1 J
b10011 I
b1 H
b0 G
b0 F
1E
b1 D
0C
b0 B
b0 A
b0 @
b0 ?
b0 >
b1 =
b0 <
b0 ;
b0 :
b100000000111110010011 9
b1 8
b1 7
b11111 6
b10011 5
b11111 4
b0 3
b1 2
b0 1
b0 0
bx /
bx .
bx -
bx ,
bx +
1*
bx )
bx (
1'
b0 &
b0 %
b0 $
b0 #
b0 "
b100000000111110010011 !
$end
#5000
0'
#10000
b100000 W
1'
#15000
0'
#20000
b100000 W
1'
#25000
0'
#30000
b100000 W
1'
#35000
0'
#40000
b100000 W
1'
#45000
0'
#50000
b100000 W
1'
#55000
0'
#60000
b100000 W
1'
#65000
0'
#70000
b100000 W
1'
#75000
0'
#80000
b100000 W
1'
#85000
0'
#90000
b100000 W
1'
#95000
0'
#100000
b100 D
b100 V
b100 =
b100 P
b10 6
b100 7
b11111111111111111111111111111100 K
b100 O
b100 8
b100 H
b100 2
b100 J
b100 S
b10 4
b10 U
b10000000000000100010011 !
b10000000000000100010011 9
b10000000000000100010011 Y
b100 "
b100 A
b100 X
b0 -
1'
b10000000000000000000000000000100 +
b10000000000000000000000000000011 .
0*
#105000
0'
#110000
b111 D
b111 V
b111 =
b111 P
b1 6
b11 7
b11 O
b11 8
b11 H
b11 2
b11 J
b11 S
b100 L
b1 K
b100 1
b100 N
b100 R
b10 3
b10 Q
b100 ;
b100 F
b1 4
b1 U
b1100010100000010010011 !
b1100010100000010010011 9
b1100010100000010010011 Y
b1000 "
b1000 A
b1000 X
b1 -
1'
#115000
0'
#120000
0E
b100100 6
b100010 7
b100010 O
b100010 8
b100010 H
b1 :
b1 G
b100 0
b100 M
b100 T
b10 2
b10 J
b10 S
b11 L
b11111111111111111111111111100101 K
b111 1
b111 N
b111 R
b1 3
b1 Q
b0 ;
b0 F
b100 4
b100 U
b1100011 5
b1100011 I
b10001000001000001001100011 !
b10001000001000001001100011 9
b10001000001000001001100011 Y
b1100 "
b1100 A
b1100 X
b10 -
1'
#125000
0'
#130000
b100000 B
1C
b10000 6
b1 7
b1 O
b1 8
b1 H
b0 :
b0 G
b111 0
b111 M
b111 T
b1 2
b1 J
b1 S
b11111111111111111111111111111101 L
b11 K
b100 1
b100 N
b100 R
b10 3
b10 Q
b100 ;
b100 F
b10000 4
b10000 U
b100010100100001100011 !
b100010100100001100011 9
b100010100100001100011 Y
b10000 "
b10000 A
b10000 X
b11 -
1'
#135000
0'
#140000
b0 D
b0 V
b0 =
b0 P
1E
b11 6
b0 7
b0 O
b0 8
b0 H
b0 0
b0 M
b0 T
b0 2
b0 J
b0 S
b0 L
b0 K
b0 1
b0 N
b0 R
b0 3
b0 Q
b0 ;
b0 F
b11 4
b11 U
b110011 5
b110011 I
b100000100010 B
b110110011 !
b110110011 9
b110110011 Y
0C
b100000 "
b100000 A
b100000 X
b100 -
1'
#145000
0'
#150000
b1011 D
b1011 V
b1011 =
b1011 P
b0 6
b1 7
b1 O
b1 8
b1 H
b111 0
b111 M
b111 T
b1 2
b1 J
b1 S
b11111111111111111111111111111101 L
b11 K
b100 1
b100 N
b100 R
b10 3
b10 Q
b0 4
b0 U
b100010000000000110011 !
b100010000000000110011 9
b100010000000000110011 Y
b100100 "
b100100 A
b100100 X
b101 -
1'
#155000
0'
#160000
0E
b1000 6
b11 7
b11 O
b11 8
b11 H
b0 0
b0 M
b0 T
b11 2
b11 J
b11 S
b0 L
b11111111111111111111111111111101 K
b0 1
b0 N
b0 R
b0 3
b0 Q
b1 ;
b1 F
b1000 4
b1000 U
b1100011 5
b1100011 I
b1100000001010001100011 !
b1100000001010001100011 9
b1100000001010001100011 Y
b101000 "
b101000 A
b101000 X
b110 -
1'
#165000
0'
#170000
b110100 B
1C
b0 7
b0 K
b0 O
b0 8
b0 H
b0 2
b0 J
b0 S
b11 3
b11 Q
b101 ;
b101 F
b11101010001100011 !
b11101010001100011 9
b11101010001100011 Y
b101100 "
b101100 A
b101100 X
b111 -
1'
#175000
0'
#180000
1E
b0 6
b0 3
b0 Q
b0 ;
b0 F
b0 4
b0 U
b0 5
b0 I
b0 !
b0 9
b0 Y
0C
b110100 "
b110100 A
b110100 X
b1000 -
1'
#185000
0'
#190000
b111000 "
b111000 A
b111000 X
b1001 -
1'
#195000
0'
#200000
b111100 "
b111100 A
b111100 X
b1010 -
1'
#205000
0'
#210000
b1000000 "
b1000000 A
b1000000 X
b1011 -
1'
#215000
0'
#220000
b1000100 "
b1000100 A
b1000100 X
b1100 -
1'
#225000
0'
#230000
b1001000 "
b1001000 A
b1001000 X
b1101 -
1'
#235000
0'
#240000
b1001100 "
b1001100 A
b1001100 X
b1110 -
1'
#245000
0'
#250000
b1010000 "
b1010000 A
b1010000 X
b1111 -
1'
#255000
0'
#260000
b1010100 "
b1010100 A
b1010100 X
b10000 -
1'
#265000
0'
#270000
b1011000 "
b1011000 A
b1011000 X
b10001 -
1'
#275000
0'
#280000
b1011100 "
b1011100 A
b1011100 X
b10010 -
1'
#285000
0'
#290000
b1111 #
b1111 @
b1111 \
0E
b10 ;
b10 F
b100011 5
b100011 I
b10000000100011 !
b10000000100011 9
b10000000100011 Y
b1100000 "
b1100000 A
b1100000 X
b10011 -
1'
#295000
0'
#300000
b1 ^
b111 $
b111 ?
b111 [
b100 &
b100 >
b100 Z
b100 6
b1 7
b11111111111111111111111111111111 K
b1 O
b1 8
b1 H
b11111111111111111111111111111001 L
b111 0
b111 M
b111 T
b1 2
b1 J
b1 S
b100 4
b100 U
b100000010001000100011 !
b100000010001000100011 9
b100000010001000100011 Y
b1100100 "
b1100100 A
b1100100 X
b10100 -
1'
#305000
0'
#310000
b10 ^
b100 $
b100 ?
b100 [
b1000 &
b1000 >
b1000 Z
b1000 6
b10 7
b11111111111111111111111111111110 K
b10 O
b10 8
b10 H
b11111111111111111111111111111100 L
b100 0
b100 M
b100 T
b10 2
b10 J
b10 S
b1000 4
b1000 U
b1000000010010000100011 !
b1000000010010000100011 9
b1000000010010000100011 Y
b1101000 "
b1101000 A
b1101000 X
b10101 -
b0 %
b0 <
b0 ]
1'
#315000
0'
#320000
b11 ^
b0 $
b0 ?
b0 [
b1100 &
b1100 >
b1100 Z
b1100 6
b11 7
b11111111111111111111111111111101 K
b11 O
b11 8
b11 H
b0 L
b0 0
b0 M
b0 T
b11 2
b11 J
b11 S
b1100 4
b1100 U
b1100000010011000100011 !
b1100000010011000100011 9
b1100000010011000100011 Y
b1101100 "
b1101100 A
b1101100 X
b0 %
b0 <
b0 ]
b10110 -
1'
#325000
0'
#330000
b100 ^
b10000 &
b10000 >
b10000 Z
b10000 6
b100 7
b11111111111111111111111111111100 K
b100 O
b100 8
b100 H
b100 2
b100 J
b100 S
b10000 4
b10000 U
b10000000010100000100011 !
b10000000010100000100011 9
b10000000010100000100011 Y
b1110000 "
b1110000 A
b1110000 X
b10111 -
1'
#335000
0'
#340000
b101 ^
b10100 &
b10100 >
b10100 Z
b10100 6
b101 7
b11111111111111111111111111111011 K
b101 O
b101 8
b101 H
b101 2
b101 J
b101 S
b10100 4
b10100 U
b10100000010101000100011 !
b10100000010101000100011 9
b10100000010101000100011 Y
b1110100 "
b1110100 A
b1110100 X
b11000 -
1'
#345000
0'
#350000
b110 ^
b11000 &
b11000 >
b11000 Z
b11000 6
b110 7
b11111111111111111111111111111010 K
b110 O
b110 8
b110 H
b110 2
b110 J
b110 S
b11000 4
b11000 U
b11000000010110000100011 !
b11000000010110000100011 9
b11000000010110000100011 Y
b1111000 "
b1111000 A
b1111000 X
b11001 -
1'
#355000
0'
#360000
b111 ^
b11100 &
b11100 >
b11100 Z
b11100 6
b111 7
b11111111111111111111111111111001 K
b111 O
b111 8
b111 H
b111 2
b111 J
b111 S
b11100 4
b11100 U
b11100000010111000100011 !
b11100000010111000100011 9
b11100000010111000100011 Y
b1111100 "
b1111100 A
b1111100 X
b11010 -
1'
#365000
0'
#370000
b1000 ^
b100000 &
b100000 >
b100000 Z
b100000 6
b101000 7
b11111111111111111111111111011000 K
b101000 O
b101000 8
b101000 H
b1 :
b1 G
b1000 2
b1000 J
b1000 S
b0 4
b0 U
b10100000000010000000100011 !
b10100000000010000000100011 9
b10100000000010000000100011 Y
b10000000 "
b10000000 A
b10000000 X
b11011 -
1'
#375000
0'
#380000
b1001 ^
b100100 &
b100100 >
b100100 Z
b100100 6
b101001 7
b11111111111111111111111111010111 K
b101001 O
b101001 8
b101001 H
b1001 2
b1001 J
b1001 S
b100 4
b100 U
b10100100000010001000100011 !
b10100100000010001000100011 9
b10100100000010001000100011 Y
b10000100 "
b10000100 A
b10000100 X
b11100 -
1'
#385000
0'
#390000
b1010 ^
b101000 &
b101000 >
b101000 Z
b101000 6
b101010 7
b11111111111111111111111111010110 K
b101010 O
b101010 8
b101010 H
b1010 2
b1010 J
b1010 S
b1000 4
b1000 U
b10101000000010010000100011 !
b10101000000010010000100011 9
b10101000000010010000100011 Y
b10001000 "
b10001000 A
b10001000 X
b11101 -
1'
#395000
0'
#400000
b1011 ^
b101100 &
b101100 >
b101100 Z
b101100 6
b101011 7
b11111111111111111111111111010101 K
b101011 O
b101011 8
b101011 H
b1011 2
b1011 J
b1011 S
b1100 4
b1100 U
b10101100000010011000100011 !
b10101100000010011000100011 9
b10101100000010011000100011 Y
b10001100 "
b10001100 A
b10001100 X
b11110 -
1'
#405000
0'
#410000
b1100 ^
b110000 &
b110000 >
b110000 Z
b110000 6
b101100 7
b11111111111111111111111111010100 K
b101100 O
b101100 8
b101100 H
b1100 2
b1100 J
b1100 S
b10000 4
b10000 U
b10110000000010100000100011 !
b10110000000010100000100011 9
b10110000000010100000100011 Y
b10010000 "
b10010000 A
b10010000 X
b11111 -
1'
#415000
0'
#420000
b1101 ^
b110100 &
b110100 >
b110100 Z
b110100 6
b101101 7
b11111111111111111111111111010011 K
b101101 O
b101101 8
b101101 H
b1101 2
b1101 J
b1101 S
b10100 4
b10100 U
b10110100000010101000100011 !
b10110100000010101000100011 9
b10110100000010101000100011 Y
b10010100 "
b10010100 A
b10010100 X
b100000 -
1'
#425000
0'
#430000
b1110 ^
b111000 &
b111000 >
b111000 Z
b111000 6
b101110 7
b11111111111111111111111111010010 K
b101110 O
b101110 8
b101110 H
b1110 2
b1110 J
b1110 S
b11000 4
b11000 U
b10111000000010110000100011 !
b10111000000010110000100011 9
b10111000000010110000100011 Y
b10011000 "
b10011000 A
b10011000 X
b100001 -
1'
#435000
0'
#440000
b1111 ^
b111100 &
b111100 >
b111100 Z
b111100 6
b101111 7
b11111111111111111111111111010001 K
b101111 O
b101111 8
b101111 H
b1111 2
b1111 J
b1111 S
b11100 4
b11100 U
b10111100000010111000100011 !
b10111100000010111000100011 9
b10111100000010111000100011 Y
b10011100 "
b10011100 A
b10011100 X
b100010 -
1'
#445000
0'
#450000
b10000 ^
b1000000 &
b1000000 >
b1000000 Z
b1000000 6
b1010000 7
b11111111111111111111111110110000 K
b1010000 O
b1010000 8
b1010000 H
b10 :
b10 G
b10000 2
b10000 J
b10000 S
b0 4
b0 U
b101000000000010000000100011 !
b101000000000010000000100011 9
b101000000000010000000100011 Y
b10100000 "
b10100000 A
b10100000 X
b100011 -
1'
#455000
0'
#460000
b10001 ^
b1000100 &
b1000100 >
b1000100 Z
b1000100 6
b1010001 7
b11111111111111111111111110101111 K
b1010001 O
b1010001 8
b1010001 H
b10001 2
b10001 J
b10001 S
b100 4
b100 U
b101000100000010001000100011 !
b101000100000010001000100011 9
b101000100000010001000100011 Y
b10100100 "
b10100100 A
b10100100 X
b100100 -
1'
#465000
0'
#470000
b10010 ^
b1001000 &
b1001000 >
b1001000 Z
b1001000 6
b1010010 7
b11111111111111111111111110101110 K
b1010010 O
b1010010 8
b1010010 H
b10010 2
b10010 J
b10010 S
b1000 4
b1000 U
b101001000000010010000100011 !
b101001000000010010000100011 9
b101001000000010010000100011 Y
b10101000 "
b10101000 A
b10101000 X
b100101 -
1'
#475000
0'
#480000
b10011 ^
b1001100 &
b1001100 >
b1001100 Z
b1001100 6
b1010011 7
b11111111111111111111111110101101 K
b1010011 O
b1010011 8
b1010011 H
b10011 2
b10011 J
b10011 S
b1100 4
b1100 U
b101001100000010011000100011 !
b101001100000010011000100011 9
b101001100000010011000100011 Y
b10101100 "
b10101100 A
b10101100 X
b100110 -
1'
#485000
0'
#490000
b10100 ^
b1010000 &
b1010000 >
b1010000 Z
b1010000 6
b1010100 7
b11111111111111111111111110101100 K
b1010100 O
b1010100 8
b1010100 H
b10100 2
b10100 J
b10100 S
b10000 4
b10000 U
b101010000000010100000100011 !
b101010000000010100000100011 9
b101010000000010100000100011 Y
b10110000 "
b10110000 A
b10110000 X
b100111 -
1'
#495000
0'
#500000
b10101 ^
b1010100 &
b1010100 >
b1010100 Z
b1010100 6
b1010101 7
b11111111111111111111111110101011 K
b1010101 O
b1010101 8
b1010101 H
b10101 2
b10101 J
b10101 S
b10100 4
b10100 U
b101010100000010101000100011 !
b101010100000010101000100011 9
b101010100000010101000100011 Y
b10110100 "
b10110100 A
b10110100 X
b101000 -
1'
#505000
0'
#510000
b10110 ^
b1011000 &
b1011000 >
b1011000 Z
b1011000 6
b1010110 7
b11111111111111111111111110101010 K
b1010110 O
b1010110 8
b1010110 H
b10110 2
b10110 J
b10110 S
b11000 4
b11000 U
b101011000000010110000100011 !
b101011000000010110000100011 9
b101011000000010110000100011 Y
b10111000 "
b10111000 A
b10111000 X
b101001 -
1'
#515000
0'
#520000
b10111 ^
b1011100 &
b1011100 >
b1011100 Z
b1011100 6
b1010111 7
b11111111111111111111111110101001 K
b1010111 O
b1010111 8
b1010111 H
b10111 2
b10111 J
b10111 S
b11100 4
b11100 U
b101011100000010111000100011 !
b101011100000010111000100011 9
b101011100000010111000100011 Y
b10111100 "
b10111100 A
b10111100 X
b101010 -
1'
#525000
0'
#530000
b11000 ^
b1100000 &
b1100000 >
b1100000 Z
b1100000 6
b1111000 7
b11111111111111111111111110001000 K
b1111000 O
b1111000 8
b1111000 H
b11 :
b11 G
b11000 2
b11000 J
b11000 S
b0 4
b0 U
b111100000000010000000100011 !
b111100000000010000000100011 9
b111100000000010000000100011 Y
b11000000 "
b11000000 A
b11000000 X
b101011 -
1'
#535000
0'
#540000
b11001 ^
b1100100 &
b1100100 >
b1100100 Z
b1100100 6
b1111001 7
b11111111111111111111111110000111 K
b1111001 O
b1111001 8
b1111001 H
b11001 2
b11001 J
b11001 S
b100 4
b100 U
b111100100000010001000100011 !
b111100100000010001000100011 9
b111100100000010001000100011 Y
b11000100 "
b11000100 A
b11000100 X
b101100 -
1'
#545000
0'
#550000
b11010 ^
b1101000 &
b1101000 >
b1101000 Z
b1101000 6
b1111010 7
b11111111111111111111111110000110 K
b1111010 O
b1111010 8
b1111010 H
b11010 2
b11010 J
b11010 S
b1000 4
b1000 U
b111101000000010010000100011 !
b111101000000010010000100011 9
b111101000000010010000100011 Y
b11001000 "
b11001000 A
b11001000 X
b101101 -
1'
#555000
0'
#560000
b11011 ^
b1101100 &
b1101100 >
b1101100 Z
b1101100 6
b1111011 7
b11111111111111111111111110000101 K
b1111011 O
b1111011 8
b1111011 H
b11011 2
b11011 J
b11011 S
b1100 4
b1100 U
b111101100000010011000100011 !
b111101100000010011000100011 9
b111101100000010011000100011 Y
b11001100 "
b11001100 A
b11001100 X
b101110 -
1'
#565000
0'
#570000
b11100 ^
b1110000 &
b1110000 >
b1110000 Z
b1110000 6
b1111100 7
b11111111111111111111111110000100 K
b1111100 O
b1111100 8
b1111100 H
b11100 2
b11100 J
b11100 S
b10000 4
b10000 U
b111110000000010100000100011 !
b111110000000010100000100011 9
b111110000000010100000100011 Y
b11010000 "
b11010000 A
b11010000 X
b101111 -
1'
#575000
0'
#580000
b11101 ^
b1110100 &
b1110100 >
b1110100 Z
b1110100 6
b1111101 7
b11111111111111111111111110000011 K
b1111101 O
b1111101 8
b1111101 H
b11101 2
b11101 J
b11101 S
b10100 4
b10100 U
b111110100000010101000100011 !
b111110100000010101000100011 9
b111110100000010101000100011 Y
b11010100 "
b11010100 A
b11010100 X
b110000 -
1'
#585000
0'
#590000
b11110 ^
b1111000 &
b1111000 >
b1111000 Z
b1111000 6
b1111110 7
b11111111111111111111111110000010 K
b1111110 O
b1111110 8
b1111110 H
b11110 2
b11110 J
b11110 S
b11000 4
b11000 U
b111111000000010110000100011 !
b111111000000010110000100011 9
b111111000000010110000100011 Y
b11011000 "
b11011000 A
b11011000 X
b110001 -
1'
#595000
0'
#600000
b11111 ^
b1 $
b1 ?
b1 [
b1111100 &
b1111100 >
b1111100 Z
b1111100 6
b1111111 7
b11111111111111111111111110000001 K
b1111111 O
b1111111 8
b1111111 H
b11111111111111111111111111111111 L
b1 0
b1 M
b1 T
b11111 2
b11111 J
b11111 S
b11100 4
b11100 U
b111111100000010111000100011 !
b111111100000010111000100011 9
b111111100000010111000100011 Y
b11011100 "
b11011100 A
b11011100 X
b110010 -
1'
#605000
0'
#610000
1E
b0 #
b0 @
b0 \
b0 6
b0 7
b0 K
b0 O
b0 8
b0 H
b0 :
b0 G
b0 L
b0 0
b0 M
b0 T
b0 2
b0 J
b0 S
b0 ;
b0 F
b0 4
b0 U
b0 5
b0 I
b0 !
b0 9
b0 Y
b11100000 "
b11100000 A
b11100000 X
b110011 -
b1 %
b1 <
b1 ]
1'
#615000
0'
#620000
b11100100 "
b11100100 A
b11100100 X
b110100 -
1'
#625000
0'
#630000
b11101000 "
b11101000 A
b11101000 X
b110101 -
1'
#635000
0'
#640000
b11101100 "
b11101100 A
b11101100 X
b110110 -
1'
#645000
0'
#650000
b11110000 "
b11110000 A
b11110000 X
b110111 -
1'
#655000
0'
#660000
b11110100 "
b11110100 A
b11110100 X
b111000 -
1'
#665000
0'
#670000
b11111000 "
b11111000 A
b11111000 X
b111001 -
1'
#675000
0'
#680000
b11111100 "
b11111100 A
b11111100 X
b111010 -
1'
#685000
0'
#690000
b100000000 "
b100000000 A
b100000000 X
b111011 -
1'
#695000
0'
#700000
b100000100 "
b100000100 A
b100000100 X
b111100 -
1'
#705000
0'
#710000
b100001000 "
b100001000 A
b100001000 X
b111101 -
1'
#715000
0'
#720000
b100001100 "
b100001100 A
b100001100 X
b111110 -
1'
#725000
0'
#730000
b100010000 "
b100010000 A
b100010000 X
b111111 -
1'
#735000
0'
#740000
b100010100 "
b100010100 A
b100010100 X
b1000000 -
1'
#745000
0'
#750000
b100011000 "
b100011000 A
b100011000 X
b1000001 -
1'
#755000
0'
#760000
b100011100 "
b100011100 A
b100011100 X
b1000010 -
1'
#765000
0'
#770000
b100100000 "
b100100000 A
b100100000 X
b1000011 -
1'
#775000
0'
#780000
b100100100 "
b100100100 A
b100100100 X
b1000100 -
1'
#785000
0'
#790000
b100101000 "
b100101000 A
b100101000 X
b1000101 -
1'
#795000
0'
#800000
b100101100 "
b100101100 A
b100101100 X
b1000110 -
1'
#805000
0'
#810000
b100110000 "
b100110000 A
b100110000 X
b1000111 -
1'
#815000
0'
#820000
b100110100 "
b100110100 A
b100110100 X
b1001000 -
1'
#825000
0'
#830000
b100111000 "
b100111000 A
b100111000 X
b1001001 -
1'
#835000
0'
#840000
b100111100 "
b100111100 A
b100111100 X
b1001010 -
1'
#845000
0'
#850000
b101000000 "
b101000000 A
b101000000 X
b1001011 -
1'
#855000
0'
#860000
b101000100 "
b101000100 A
b101000100 X
b1001100 -
1'
#865000
0'
#870000
b101001000 "
b101001000 A
b101001000 X
b1001101 -
1'
#875000
0'
#880000
b101001100 "
b101001100 A
b101001100 X
b1001110 -
1'
#885000
0'
#890000
b101010000 "
b101010000 A
b101010000 X
b1001111 -
1'
#895000
0'
#900000
b101010100 "
b101010100 A
b101010100 X
b1010000 -
1'
#905000
0'
#910000
b101011000 "
b101011000 A
b101011000 X
b1010001 -
1'
#915000
0'
#920000
b101011100 "
b101011100 A
b101011100 X
b1010010 -
1'
#925000
0'
#930000
b101100000 "
b101100000 A
b101100000 X
b1010011 -
1'
#935000
0'
#940000
b101100100 "
b101100100 A
b101100100 X
b1010100 -
1'
#945000
0'
#950000
b101101000 "
b101101000 A
b101101000 X
b1010101 -
1'
#955000
0'
#960000
b101101100 "
b101101100 A
b101101100 X
b1010110 -
1'
#965000
0'
#970000
b101110000 "
b101110000 A
b101110000 X
b1010111 -
1'
#975000
0'
#980000
b101110100 "
b101110100 A
b101110100 X
b1011000 -
1'
#985000
0'
#990000
b101111000 "
b101111000 A
b101111000 X
b1011001 -
1'
#995000
0'
#1000000
b101111100 "
b101111100 A
b101111100 X
b1011010 -
1'
#1005000
0'
#1010000
b110000000 "
b110000000 A
b110000000 X
b1011011 -
1'
#1015000
0'
#1020000
b110000100 "
b110000100 A
b110000100 X
b1011100 -
1'
#1025000
0'
#1030000
b110001000 "
b110001000 A
b110001000 X
b1011101 -
1'
#1035000
0'
#1040000
b110001100 "
b110001100 A
b110001100 X
b1011110 -
1'
#1045000
0'
#1050000
b110010000 "
b110010000 A
b110010000 X
b1011111 -
1'
#1055000
0'
#1060000
b110010100 "
b110010100 A
b110010100 X
b1100000 -
1'
#1065000
0'
#1070000
b110011000 "
b110011000 A
b110011000 X
b1100001 -
1'
#1075000
0'
#1080000
b110011100 "
b110011100 A
b110011100 X
b1100010 -
1'
#1085000
0'
#1090000
b110100000 "
b110100000 A
b110100000 X
b1100011 -
1'
#1095000
0'
#1100000
b110100100 "
b110100100 A
b110100100 X
b1100100 -
1'
#1105000
0'
#1110000
b110101000 "
b110101000 A
b110101000 X
b1100101 -
1'
#1115000
0'
#1120000
b110101100 "
b110101100 A
b110101100 X
b1100110 -
1'
#1125000
0'
#1130000
b110110000 "
b110110000 A
b110110000 X
b1100111 -
1'
#1135000
0'
#1140000
b110110100 "
b110110100 A
b110110100 X
b1101000 -
1'
#1145000
0'
#1150000
b110111000 "
b110111000 A
b110111000 X
b1101001 -
1'
#1155000
0'
#1160000
b110111100 "
b110111100 A
b110111100 X
b1101010 -
1'
#1165000
0'
#1170000
b111000000 "
b111000000 A
b111000000 X
b1101011 -
1'
#1175000
0'
#1180000
b111000100 "
b111000100 A
b111000100 X
b1101100 -
1'
#1185000
0'
#1190000
b111001000 "
b111001000 A
b111001000 X
b1101101 -
1'
#1195000
0'
#1200000
b111001100 "
b111001100 A
b111001100 X
b1101110 -
1'
#1205000
0'
#1210000
b111010000 "
b111010000 A
b111010000 X
b1101111 -
1'
#1215000
0'
#1220000
b111010100 "
b111010100 A
b111010100 X
b1110000 -
1'
#1225000
0'
#1230000
b111011000 "
b111011000 A
b111011000 X
b1110001 -
1'
#1235000
0'
#1240000
b111011100 "
b111011100 A
b111011100 X
b1110010 -
1'
#1245000
0'
#1250000
b111100000 "
b111100000 A
b111100000 X
b1110011 -
1'
#1255000
0'
#1260000
b111100100 "
b111100100 A
b111100100 X
b1110100 -
1'
#1265000
0'
#1270000
b111101000 "
b111101000 A
b111101000 X
b1110101 -
1'
#1275000
0'
#1280000
b111101100 "
b111101100 A
b111101100 X
b1110110 -
1'
#1285000
0'
#1290000
b111110000 "
b111110000 A
b111110000 X
b1110111 -
1'
#1295000
0'
#1300000
b111110100 "
b111110100 A
b111110100 X
b1111000 -
1'
#1305000
0'
#1310000
b111111000 "
b111111000 A
b111111000 X
b1111001 -
1'
#1315000
0'
#1320000
b111111100 "
b111111100 A
b111111100 X
b1111010 -
1'
#1325000
0'
#1330000
b1000000000 "
b1000000000 A
b1000000000 X
b1111011 -
1'
#1335000
0'
#1340000
b1000000100 "
b1000000100 A
b1000000100 X
b1111100 -
1'
#1345000
0'
#1350000
b1000001000 "
b1000001000 A
b1000001000 X
b1111101 -
1'
#1355000
0'
#1360000
b1000001100 "
b1000001100 A
b1000001100 X
b1111110 -
1'
#1365000
0'
#1370000
b1000010000 "
b1000010000 A
b1000010000 X
b1111111 -
1'
#1375000
0'
#1380000
b1000010100 "
b1000010100 A
b1000010100 X
b10000000 -
1'
#1385000
0'
#1390000
b1000011000 "
b1000011000 A
b1000011000 X
b10000001 -
1'
#1395000
0'
#1400000
b1000011100 "
b1000011100 A
b1000011100 X
b10000010 -
1'
#1405000
0'
#1410000
b1000100000 "
b1000100000 A
b1000100000 X
b10000011 -
1'
#1415000
0'
#1420000
b1000100100 "
b1000100100 A
b1000100100 X
b10000100 -
1'
#1425000
0'
#1430000
b1000101000 "
b1000101000 A
b1000101000 X
b10000101 -
1'
#1435000
0'
#1440000
b1000101100 "
b1000101100 A
b1000101100 X
b10000110 -
1'
#1445000
0'
#1450000
b1000110000 "
b1000110000 A
b1000110000 X
b10000111 -
1'
#1455000
0'
#1460000
b1000110100 "
b1000110100 A
b1000110100 X
b10001000 -
1'
#1465000
0'
#1470000
b1000111000 "
b1000111000 A
b1000111000 X
b10001001 -
1'
#1475000
0'
#1480000
b1000111100 "
b1000111100 A
b1000111100 X
b10001010 -
1'
#1485000
0'
#1490000
b1001000000 "
b1001000000 A
b1001000000 X
b10001011 -
1'
#1495000
0'
#1500000
b1001000100 "
b1001000100 A
b1001000100 X
b10001100 -
1'
#1505000
0'
#1510000
b1001001000 "
b1001001000 A
b1001001000 X
b10001101 -
1'
#1515000
0'
#1520000
b1001001100 "
b1001001100 A
b1001001100 X
b10001110 -
1'
#1525000
0'
#1530000
b1001010000 "
b1001010000 A
b1001010000 X
b10001111 -
1'
#1535000
0'
#1540000
b1001010100 "
b1001010100 A
b1001010100 X
b10010000 -
1'
#1545000
0'
#1550000
b1001011000 "
b1001011000 A
b1001011000 X
b10010001 -
1'
#1555000
0'
#1560000
b1001011100 "
b1001011100 A
b1001011100 X
b10010010 -
1'
#1565000
0'
#1570000
b1001100000 "
b1001100000 A
b1001100000 X
b10010011 -
1'
#1575000
0'
#1580000
b1001100100 "
b1001100100 A
b1001100100 X
b10010100 -
1'
#1585000
0'
#1590000
b1001101000 "
b1001101000 A
b1001101000 X
b10010101 -
1'
#1595000
0'
#1600000
b1001101100 "
b1001101100 A
b1001101100 X
b10010110 -
1'
#1605000
0'
#1610000
b1001110000 "
b1001110000 A
b1001110000 X
b10010111 -
1'
#1615000
0'
#1620000
b1001110100 "
b1001110100 A
b1001110100 X
b10011000 -
1'
#1625000
0'
#1630000
b1001111000 "
b1001111000 A
b1001111000 X
b10011001 -
1'
#1635000
0'
#1640000
b1001111100 "
b1001111100 A
b1001111100 X
b10011010 -
1'
#1645000
0'
#1650000
b1010000000 "
b1010000000 A
b1010000000 X
b10011011 -
1'
#1655000
0'
#1660000
b1010000100 "
b1010000100 A
b1010000100 X
b10011100 -
1'
#1665000
0'
